<svg width="36" height="37" viewBox="0 0 36 37" fill="none" xmlns="http://www.w3.org/2000/svg">
<path d="M20.2272 18.5L24.5387 14.1885C25.1538 13.5734 25.1538 12.5763 24.5387 11.9613C23.9237 11.3462 22.9266 11.3462 22.3115 11.9613L18 16.2728L13.6885 11.9613C13.0734 11.3462 12.0763 11.3462 11.4613 11.9613C10.8462 12.5763 10.8462 13.5734 11.4613 14.1885L15.7728 18.5L11.4613 22.8115C10.8462 23.4266 10.8462 24.4237 11.4613 25.0387C11.7688 25.3462 12.1718 25.5 12.5749 25.5C12.9779 25.5 13.381 25.3462 13.6884 25.0387L18 20.7272L22.3115 25.0387C22.619 25.3462 23.0221 25.5 23.4251 25.5C23.8281 25.5 24.2312 25.3462 24.5387 25.0387C25.1537 24.4237 25.1537 23.4266 24.5387 22.8115L20.2272 18.5Z" fill="#434343"/>
<circle cx="18" cy="18.5" r="17.5" stroke="#F2F2F2"/>
</svg>
