<svg width="22" height="22" viewBox="0 0 22 22" fill="none" xmlns="http://www.w3.org/2000/svg">
<path d="M11 0C4.9247 0 0 4.9247 0 11C0 17.0753 4.9247 22 11 22C17.0753 22 22 17.0753 22 11C22 4.9247 17.0753 0 11 0ZM11 20.35C9.77207 20.3499 8.55618 20.108 7.42174 19.638C6.28731 19.168 5.25655 18.4792 4.38832 17.6109C3.5201 16.7426 2.8314 15.7117 2.36156 14.5772C1.89172 13.4428 1.64993 12.2268 1.65 10.9989C1.65007 9.77097 1.892 8.55507 2.36198 7.42064C2.83195 6.28621 3.52077 5.25545 4.3891 4.38722C5.25743 3.519 6.28827 2.8303 7.42276 2.36046C8.55725 1.89062 9.77317 1.64883 11.0011 1.6489C13.481 1.64905 15.8593 2.63433 17.6128 4.388C19.3662 6.14167 20.3512 8.52008 20.3511 11C20.351 13.4799 19.3657 15.8582 17.612 17.6117C15.8583 19.3651 13.4799 20.3501 11 20.35ZM11 11.55C7.6582 11.55 4.95 13.4508 4.95 15.4C4.95 17.3492 7.6582 19.25 11 19.25C14.3418 19.25 17.05 17.3492 17.05 15.4C17.05 13.4508 14.3418 11.55 11 11.55ZM11 11C11.8752 11 12.7146 10.6523 13.3335 10.0335C13.9523 9.41458 14.3 8.57521 14.3 7.7C14.3 6.82479 13.9523 5.98542 13.3335 5.36655C12.7146 4.74768 11.8752 4.4 11 4.4C10.1248 4.4 9.28542 4.74768 8.66655 5.36655C8.04768 5.98542 7.7 6.82479 7.7 7.7C7.7 8.57521 8.04768 9.41458 8.66655 10.0335C9.28542 10.6523 10.1248 11 11 11Z" fill="#3A3A3A"/>
</svg>
